{
  "type": "service_account",
  "project_id": "terraform-devops-406210",
  "private_key_id": "7a94b783a43213893eba33b06884b69a02491dc7",
  "private_key": "-----BEGIN PRIVATE KEY-----\nMIIEvQIBADANBgkqhkiG9w0BAQEFAASCBKcwggSjAgEAAoIBAQCmbSd6Qizs9cR4\nfTu0ON8ARn1wu32LRxe+PZ05HnpelCPEvZ6RjCGnq5rGq7HaHCStVn6g4VJVEZdz\n7G/8eCibJMWeDkzYoCJ33pqxn8fVwvoa1RBmsgn4+GJpxXlfE66csjqF/g457HZZ\nv9M2gFSfd1WVuDcpNOHYVTf2+ui3V7YHIz/WE7pvJnuCsu5VwbxZw+xeDPuaWCVi\nLAu8IkCfJZN5OyBhN5BdCiqTa7YjDiXJf2mPzuylvaNrR5T9UDHAbknapQIzRyDs\nKJuwQ4tPIC7A+UlRcDuaG62n2ro774Q8e1hYLrA7lO1wACxZ1fEnqConN+PuR/X0\nUxgJuDKxAgMBAAECggEAATyYaYEqYkxlPFv54Jn3lkHv1rGd+jX6CDDfBTijwiYp\nqeGa1wwKh/tveAB4nt1MrHkTEdD60qUB0hu0rVSbQKPiUA1dJtLxzqA52A4O5xi+\n0Qo6R/kUt+Pon06XW0yDJKjyZGKB6o5GRt51DFehyVmSqj0nM8gv0XK4qr4skogy\nPYWY2SvvB+UYKCXm05aJWdLcgbjgVkOxI/LTK+zACeHV0njgj8WhjDgECvGm1vBk\n5ncX4bNiOjwiufwStMuiCRNwV3HvL7qTFGsjYmh+TgQ6ORVvrvVTfCDIzNlDACPm\nRBoy8xWvPsmtpnR046LJCyi/dohut88VyO8kTgkhwQKBgQDk/UC6KQs60QK0JCsa\nT1BfJrZreTqiqIlxroXChE4mhmSejaKt5BGMgWusYoSYjTl9K4smdWFpjqFhhMJg\nRVOL08Sz0x/SCRlQVZGbCAevTGtcEMlob7ljYmQjPIY52RZ+WSUqbtC3vtbiqnad\nHBdUJfTWwfpS8VWgcNk3oFKu2QKBgQC6DrOLDd7dRtArpPBzC4I3sAzN3DWq3+tm\nnh2MopSD8vjVN/mtjEqkyoBkdFlMlbUz/ieYXqADjbhmokn3z3axHdNrgug1EqZL\nEohjMgXd2F+J+4ldQegGPNUECpMimyWOj4LVc0jFP84bheAdH21NqPjplrVJXtMB\n7B9WEWFrmQKBgBCNIZ2TE+W3b8uXhaoMK5IFGVBhXdSd+/lElRR/ParZMfKn6CdL\ngd03CZJXOKBSLOKYQCGSgG0ByzZiQy50NFq5/tDEpNsonzTISpL7HJsWGfh4miY7\nVRoS5YwKduU9hLuzM9WCVwHBAIU3rwUiH6mMaMsREEfoe7jyDzFPHErZAoGAKmFO\n5E20hhKrOEXJv2rPrn+bawjN8K4woJ9De9VMnwGpTGgDp1RdbEv0Eu2tqZQwQjeS\nLVLgf+64Iii1UI0hLBbvIX4gBnbJCjCegHnUfEPc/0EcePGaOFGC8/i0qx1L4L0v\nwA8SdFukRwCnm/qcmyPyDsMVaDEBP17ZhHFRD4ECgYEAvdTa2Sl6tgJ4OMeK3ArT\nNj1Ut1XXs4din+oF8+6WRoqanvZ452VzN0bAeLkfJRM/iAlGSxnK3aBdMap5j/a5\niFf0o8JevnHKBUZ4p7V3Xybb7a1aGeL5HUTNKuhrcl8iC+wMcg6sK4S3FhnpFTh8\n+/HUYUI+nOW0GHJ0MxvAgO4=\n-----END PRIVATE KEY-----\n",
  "client_email": "terra-604@terraform-devops-406210.iam.gserviceaccount.com",
  "client_id": "101773266533439074414",
  "auth_uri": "https://accounts.google.com/o/oauth2/auth",
  "token_uri": "https://oauth2.googleapis.com/token",
  "auth_provider_x509_cert_url": "https://www.googleapis.com/oauth2/v1/certs",
  "client_x509_cert_url": "https://www.googleapis.com/robot/v1/metadata/x509/terra-604%40terraform-devops-406210.iam.gserviceaccount.com",
  "universe_domain": "googleapis.com"
}
